…
#> Warning: package 'Rcpp' was built under R version 3.6.3
#> Loading required package: caret
#> Warning: package 'caret' was built under R version 3.6.3
#> Loading required package: lattice
#> Loading required package: ggplot2
#> Loading required package: tstools
#> Loading required package: magrittr
#> Registered S3 method overwritten by 'quantmod':
#>   method            from
#>   as.zoo.data.frame zoo
#> Registered S3 method overwritten by 'greybox':
#>   method     from
#>   print.pcor lava
head(dummy_gasprice)
#> # A tibble: 6 x 6
#>   year_month state    oil_company gasprice spotprice gemprice
#>   <date>     <chr>    <chr>          <dbl>     <dbl>    <dbl>
#> 1 1991-01-31 New York CompanyA        1.22      29.4     44.5
#> 2 1991-02-28 New York CompanyA        1.22      18.5     41.8
#> 3 1991-03-31 New York CompanyA        1.16      16.5     38.8
#> 4 1991-04-30 New York CompanyA        1.26      25.0     59.0
#> 5 1991-05-31 New York CompanyA        1.33      24.6     44.5
#> # ... with 1 more row
```
…
``` r
# For UNIVARIATE forecasting
ts_forecast_data_univariate <- tstools::initialize_ts_forecast_data(
  data = dummy_gasprice, 
  # Indicate which Date column corresponds to the time component
  date_col = "year_month", 
  # Indicate which column of values should be forecasted
  col_of_interest = "gasprice",
  # OPTIONAL: Indicate which column(s) should be used to create groups to forecast separately
  group_cols = c("state", "oil_company")
)
head(ts_forecast_data_univariate)
#> # A tibble: 6 x 3
#>   period     col_of_interest grouping                                     
#>   <date>               <dbl> <chr>                                        
#> 1 1991-01-31            1.22 state = New York   &   oil_company = CompanyA
#> 2 1991-02-28            1.22 state = New York   &   oil_company = CompanyA
#> 3 1991-03-31            1.16 state = New York   &   oil_company = CompanyA
#> 4 1991-04-30            1.26 state = New York   &   oil_company = CompanyA
#> 5 1991-05-31            1.33 state = New York   &   oil_company = CompanyA
#> # ... with 1 more row

# For MULTIVARIATE forecasting
ts_forecast_data_multivariate <- tstools::initialize_ts_forecast_data(
  data = dummy_gasprice, 
  date_col = "year_month", 
  col_of_interest = "gasprice", 
  group_cols = c("state", "oil_company"),
  # For multivariate forecasting, indicate which column(s) should be used as external regressors
  xreg_cols = c("spotprice", "gemprice")
)
head(ts_forecast_data_multivariate)
#> # A tibble: 6 x 5
#>   period     col_of_interest grouping                                     
#>   <date>               <dbl> <chr>                                        
#> 1 1991-01-31            1.22 state = New York   &   oil_company = CompanyA
#> 2 1991-02-28            1.22 state = New York   &   oil_company = CompanyA
#> 3 1991-03-31            1.16 state = New York   &   oil_company = CompanyA
#> 4 1991-04-30            1.26 state = New York   &   oil_company = CompanyA
#> 5 1991-05-31            1.33 state = New York   &   oil_company = CompanyA
#>   spotprice gemprice
#>       <dbl>    <dbl>
#> 1      29.4     44.5
#> 2      18.5     41.8
#> 3      16.5     38.8
#> 4      25.0     59.0
#> 5      24.6     44.5
#> # ... with 1 more row
```
…
  # Default is quarterly (every 3 months) and yearly (every 12 months) seasonality
  seasonal_periods = c(12,3), 
  # Default is 24 months (2 years) of miminum training period, but 180 month is used here to limit the runtime
  min_train_periods = 180, 
  # By default the training data is not limited
  max_train_periods = Inf, 
  # 12 months ahead forecasting is the default forecast horizon
  periods_ahead = 12, 
  # Limit the forecast methods to only two methods to limit the runtime
  fc_methods = c("linear", "prophet"),
  # Set to TRUE to get updates on progress
  verbose = FALSE
)
head(main_forecasting_table)
#> # A tibble: 6 x 10
#>   grouping                                      ts_start ts_split_date ts_end
#>   <chr>                                            <dbl>         <dbl>  <dbl>
#> 1 state = New York   &   oil_company = CompanyA   199101        200512 200611
#> 2 state = New York   &   oil_company = CompanyA   199101        200601 200611
#> 3 state = New York   &   oil_company = CompanyA   199101        200602 200611
#> 4 state = New York   &   oil_company = CompanyA   199101        200603 200611
#> 5 state = New York   &   oil_company = CompanyA   199101        200604 200611
#>   train_length valid_length ts_object_train ts_object_valid fc_models       
#>          <dbl>        <dbl> <list>          <list>          <list>          
#> 1          180           11 <msts>          <msts>          <named list [5]>
#> 2          181           10 <msts>          <msts>          <named list [5]>
#> 3          182            9 <msts>          <msts>          <named list [5]>
#> 4          183            8 <msts>          <msts>          <named list [5]>
#> 5          184            7 <msts>          <msts>          <named list [5]>
#>   fc_errors        
#>   <list>           
#> 1 <tibble [55 x 9]>
#> 2 <tibble [50 x 9]>
#> 3 <tibble [45 x 9]>
#> 4 <tibble [40 x 9]>
#> 5 <tibble [35 x 9]>
#> # ... with 1 more row
```
…
``` r
main_forecasting_table <- create_main_forecasting_table(
  # Using the univariate forecast data for this example, but multivariate is also possible 
  data = ts_forecast_data_univariate, 
  # Default is quarterly (every 3 months) and yearly (every 12 months) seasonality
  seasonal_periods = c(12,3),
  # Miminum training period of 60 months (5 years) is used here
  min_train_periods = 5 * 12,
  # By default the training data is not limited
  max_train_periods = Inf
)
head(main_forecasting_table)
#> # A tibble: 6 x 8
#>   grouping                                      ts_start ts_split_date ts_end
#>   <chr>                                            <dbl>         <dbl>  <dbl>
#> 1 state = New York   &   oil_company = CompanyA   199101        199512 200611
#> 2 state = New York   &   oil_company = CompanyA   199101        199601 200611
#> 3 state = New York   &   oil_company = CompanyA   199101        199602 200611
#> 4 state = New York   &   oil_company = CompanyA   199101        199603 200611
#> 5 state = New York   &   oil_company = CompanyA   199101        199604 200611
#>   train_length valid_length ts_object_train ts_object_valid
#>          <dbl>        <dbl> <list>          <list>         
#> 1           60          131 <msts>          <msts>         
#> 2           61          130 <msts>          <msts>         
#> 3           62          129 <msts>          <msts>         
#> 4           63          128 <msts>          <msts>         
#> 5           64          127 <msts>          <msts>         
#> # ... with 1 more row
```
…
``` r
main_forecasting_table <- add_fc_models_to_main_forecasting_table(
  main_forecasting_table = main_forecasting_table, 
  # 12 months ahead forecasting is the default forecast horizon
  periods_ahead = 12,
  # Limit the forecast methods to only two methods to limit the runtime
  fc_methods = c("linear", "holt_winters"),
  # Set to TRUE to get updates on progress
  verbose = FALSE
)
head(main_forecasting_table)
#> # A tibble: 6 x 10
#>   grouping                                      ts_start ts_split_date ts_end
#>   <chr>                                            <dbl>         <dbl>  <dbl>
#> 1 state = New York   &   oil_company = CompanyA   199101        199512 200611
#> 2 state = New York   &   oil_company = CompanyA   199101        199601 200611
#> 3 state = New York   &   oil_company = CompanyA   199101        199602 200611
#> 4 state = New York   &   oil_company = CompanyA   199101        199603 200611
#> 5 state = New York   &   oil_company = CompanyA   199101        199604 200611
#>   train_length valid_length ts_object_train ts_object_valid fc_models       
#>          <dbl>        <dbl> <list>          <list>          <list>          
#> 1           60          131 <msts>          <msts>          <named list [4]>
#> 2           61          130 <msts>          <msts>          <named list [4]>
#> 3           62          129 <msts>          <msts>          <named list [4]>
#> 4           63          128 <msts>          <msts>          <named list [4]>
#> 5           64          127 <msts>          <msts>          <named list [4]>
#>   fc_errors        
#>   <list>           
#> 1 <tibble [48 x 9]>
#> 2 <tibble [48 x 9]>
#> 3 <tibble [48 x 9]>
#> 4 <tibble [48 x 9]>
#> 5 <tibble [48 x 9]>
#> # ... with 1 more row
```
…
With all the forecast models, forecasts and forecast errors available in
the main forecasting table, it is now possible to calculate the forecast
performance in terms of forecasting accuracy using the
[`get_forecast_accuracy_overview()`](#get_forecast_accuracy_overview)
function:

``` r
accuracy_overview <- get_forecast_accuracy_overview(
  main_forecasting_table = main_forecasting_table,
  # By default, the Mean Absolute Error (MAE) is used to evaluate the forecast errors and rank the models
  metric = "MAE"
)
head(accuracy_overview)
#> # A tibble: 6 x 14
#>   grouping                                     fc_periods_ahead
#>   <chr>                                                   <dbl>
#> 1 state = Indiana   &   oil_company = CompanyA                1
#> 2 state = Indiana   &   oil_company = CompanyA                1
#> 3 state = Indiana   &   oil_company = CompanyA                1
#> 4 state = Indiana   &   oil_company = CompanyA                1
#> 5 state = Indiana   &   oil_company = CompanyA                2
#>   fc_model                 n_data_point   MAE  MAPE  MASE      min     q1 metric
#>   <chr>                           <int> <dbl> <dbl> <dbl>    <dbl>  <dbl>  <dbl>
#> 1 fc_holt_winters_addiv             131 0.200 0.134  1.04 0.000197 0.0727  0.200
#> 2 fc_holt_winters_multip            131 0.203 0.136  1.05 0.00169  0.0761  0.203
#> 3 fc_linear_trend                   131 0.274 0.163  1.36 0.00577  0.104   0.274
#> 4 fc_linear_trend_seasonal          131 0.279 0.166  1.39 0.000898 0.0985  0.279
#> 5 fc_holt_winters_addiv             130 0.205 0.137  1.07 0.00181  0.0664  0.205
#>      q3   max    sd order
#>   <dbl> <dbl> <dbl> <dbl>
#> 1 0.266  1.20 0.177     1
#> 2 0.277  1.21 0.176     2
#> 3 0.352  1.55 0.265     3
#> 4 0.392  1.53 0.265     4
#> 5 0.286  1.20 0.184     1
#> # ... with 1 more row
```
…
