…
Any required packages that are missing from your R library will be indicated during installation or loading of the package, please install these missing packages and retry installing/loading tsforecast.

How to use

The package contains example data (a modified version of expsmooth::gasprice) that can be used to try out the package:

library(tsforecast)
#> Loading required package: Rcpp
#> Loading required package: caret
#> Loading required package: lattice
#> Loading required package: ggplot2
#> Loading required package: magrittr
head(dummy_gasprice)
#> # A tibble: 6 x 6
#>   year_month state    oil_company gasprice spotprice gemprice
#>   <date>     <chr>    <chr>          <dbl>     <dbl>    <dbl>
#> 1 1991-01-31 New York CompanyA           1.22      29.4     44.5
#> 2 1991-02-28 New York CompanyA           1.22      18.5     41.8
#> 3 1991-03-31 New York CompanyA           1.16      16.5     38.8
#> 4 1991-04-30 New York CompanyA           1.26      25.0     59.0
#> 5 1991-05-31 New York CompanyA           1.33      24.6     44.5
#> # ... with 1 more row

You need to initialize the data to be used within the time series forecasting framework (using initialize_ts_forecast_data()), by specifying which columns correspond to which required fields for the forecasting:

# For UNIVARIATE forecasting
ts_forecast_data_univariate <- initialize_ts_forecast_data(
  data = dummy_gasprice, 
  # Indicate which Date column corresponds to the time component
  date_col = "year_month", 
  # Indicate which column of values should be forecasted
  col_of_interest = "gasprice",
  # OPTIONAL: Indicate which column(s) should be used to create groups to forecast separately
  group_cols = c("state", "oil_company")
)
head(ts_forecast_data_univariate)
#> # A tibble: 6 x 3
#>   period     col_of_interest grouping                                  
#>   <date>               <dbl> <chr>                                     
#> 1 1991-01-31            1.22 state = New York   &   oil_company = CompanyA
#> 2 1991-02-28            1.22 state = New York   &   oil_company = CompanyA
#> 3 1991-03-31            1.16 state = New York   &   oil_company = CompanyA
#> 4 1991-04-30            1.26 state = New York   &   oil_company = CompanyA
#> 5 1991-05-31            1.33 state = New York   &   oil_company = CompanyA
#> # ... with 1 more row

# For MULTIVARIATE forecasting
ts_forecast_data_multivariate <- initialize_ts_forecast_data(
  data = dummy_gasprice, 
  date_col = "year_month", 
  col_of_interest = "gasprice", 
  group_cols = c("state", "oil_company"),
  # For multivariate forecasting, indicate which column(s) should be used as external regressors
  xreg_cols = c("spotprice", "gemprice")
)
head(ts_forecast_data_multivariate)
#> # A tibble: 6 x 5
#>   period     col_of_interest grouping                                  
#>   <date>               <dbl> <chr>                                     
#> 1 1991-01-31            1.22 state = New York   &   oil_company = CompanyA
#> 2 1991-02-28            1.22 state = New York   &   oil_company = CompanyA
#> 3 1991-03-31            1.16 state = New York   &   oil_company = CompanyA
#> 4 1991-04-30            1.26 state = New York   &   oil_company = CompanyA
#> 5 1991-05-31            1.33 state = New York   &   oil_company = CompanyA
#>   spotprice gemprice
#>       <dbl>    <dbl>
#> 1      29.4     44.5
#> 2      18.5     41.8
#> 3      16.5     38.8
#> 4      25.0     59.0
#> 5      24.6     44.5
#> # ... with 1 more row
…
  # Default is quarterly (every 3 months) and yearly (every 12 months) seasonality
  seasonal_periods = c(12,3), 
  # Default is 24 months (2 years) of miminum training period, but 180 month is used here to limit the runtime
  min_train_periods = 180, 
  # By default the training data is not limited
  max_train_periods = Inf, 
  # 12 months ahead forecasting is the default forecast horizon
  periods_ahead = 12, 
  # Limit the forecast methods to only two methods to limit the runtime
  fc_methods = c("linear", "prophet"),
  # Set to TRUE to get updates on progress
  verbose = FALSE
)
head(main_forecasting_table)
#> # A tibble: 6 x 10
#>   grouping                                   ts_start ts_split_date ts_end
#>   <chr>                                         <dbl>         <dbl>  <dbl>
#> 1 state = New York   &   oil_company = CompanyA   199101        200512 200611
#> 2 state = New York   &   oil_company = CompanyA   199101        200601 200611
#> 3 state = New York   &   oil_company = CompanyA   199101        200602 200611
#> 4 state = New York   &   oil_company = CompanyA   199101        200603 200611
#> 5 state = New York   &   oil_company = CompanyA   199101        200604 200611
#>   train_length valid_length ts_object_train ts_object_valid fc_models 
#>          <dbl>        <dbl> <list>          <list>          <list>    
#> 1          180           11 <S3: msts>      <S3: msts>      <list [5]>
#> 2          181           10 <S3: msts>      <S3: msts>      <list [5]>
#> 3          182            9 <S3: msts>      <S3: msts>      <list [5]>
#> 4          183            8 <S3: msts>      <S3: msts>      <list [5]>
#> 5          184            7 <S3: msts>      <S3: msts>      <list [5]>
#>   fc_errors        
#>   <list>           
#> 1 <tibble [55 x 8]>
#> 2 <tibble [50 x 8]>
#> 3 <tibble [45 x 8]>
#> 4 <tibble [40 x 8]>
#> 5 <tibble [35 x 8]>
#> # ... with 1 more row
…
After initializing the forecast data, the main forecasting table can be created while specifying the requirements for the time series forecasts using the create_main_forecasting_table() function:

main_forecasting_table <- create_main_forecasting_table(
  # Using the univariate forecast data for this example, but multivariate is also possible 
  data = ts_forecast_data_univariate, 
  # Default is quarterly (every 3 months) and yearly (every 12 months) seasonality
  seasonal_periods = c(12,3),
  # Miminum training period of 60 months (5 years) is used here
  min_train_periods = 5 * 12,
  # By default the training data is not limited
  max_train_periods = Inf
)
head(main_forecasting_table)
#> # A tibble: 6 x 8
#>   grouping                                   ts_start ts_split_date ts_end
#>   <chr>                                         <dbl>         <dbl>  <dbl>
#> 1 state = New York   &   oil_company = CompanyA   199101        199512 200611
#> 2 state = New York   &   oil_company = CompanyA   199101        199601 200611
#> 3 state = New York   &   oil_company = CompanyA   199101        199602 200611
#> 4 state = New York   &   oil_company = CompanyA   199101        199603 200611
#> 5 state = New York   &   oil_company = CompanyA   199101        199604 200611
#>   train_length valid_length ts_object_train ts_object_valid
#>          <dbl>        <dbl> <list>          <list>         
#> 1           60          131 <S3: msts>      <S3: msts>     
#> 2           61          130 <S3: msts>      <S3: msts>     
#> 3           62          129 <S3: msts>      <S3: msts>     
#> 4           63          128 <S3: msts>      <S3: msts>     
#> 5           64          127 <S3: msts>      <S3: msts>     
#> # ... with 1 more row

Initially, the main forecasting table only contains the settings and requirements for performing the time series forecasting. The forecast models, forecasts and resulting forecast errors are added using the add_fc_models_to_main_forecasting_table() function:

main_forecasting_table <- add_fc_models_to_main_forecasting_table(
  main_forecasting_table = main_forecasting_table, 
  # 12 months ahead forecasting is the default forecast horizon
  periods_ahead = 12,
  # Limit the forecast methods to only two methods to limit the runtime
  fc_methods = c("linear", "holt_winters"),
  # Set to TRUE to get updates on progress
  verbose = FALSE
)
head(main_forecasting_table)
#> # A tibble: 6 x 10
#>   grouping                                   ts_start ts_split_date ts_end
#>   <chr>                                         <dbl>         <dbl>  <dbl>
#> 1 state = New York   &   oil_company = CompanyA   199101        199512 200611
#> 2 state = New York   &   oil_company = CompanyA   199101        199601 200611
#> 3 state = New York   &   oil_company = CompanyA   199101        199602 200611
#> 4 state = New York   &   oil_company = CompanyA   199101        199603 200611
#> 5 state = New York   &   oil_company = CompanyA   199101        199604 200611
#>   train_length valid_length ts_object_train ts_object_valid fc_models 
#>          <dbl>        <dbl> <list>          <list>          <list>    
#> 1           60          131 <S3: msts>      <S3: msts>      <list [4]>
#> 2           61          130 <S3: msts>      <S3: msts>      <list [4]>
#> 3           62          129 <S3: msts>      <S3: msts>      <list [4]>
#> 4           63          128 <S3: msts>      <S3: msts>      <list [4]>
#> 5           64          127 <S3: msts>      <S3: msts>      <list [4]>
#>   fc_errors        
#>   <list>           
#> 1 <tibble [48 x 8]>
#> 2 <tibble [48 x 8]>
#> 3 <tibble [48 x 8]>
#> 4 <tibble [48 x 8]>
#> 5 <tibble [48 x 8]>
#> # ... with 1 more row

With all the forecast models, forecasts and forecast errors available in the main forecasting table, it is now possible to calculate the forecast performance in terms of forecasting accuracy using the get_forecast_accuracy_overview() function:

accuracy_overview <- get_forecast_accuracy_overview(
  main_forecasting_table = main_forecasting_table,
  # By default, the mean is used to evaluate the forecast errors and rank the forecast models
  sort_by = "mean",
  # By default, absolute errors are used so positive and negative forecast errors are not canceled out
  abs_error = T
)
head(accuracy_overview)
#> # A tibble: 6 x 19
#>   grouping                                  fc_periods_ahead
#>   <chr>                                                <dbl>
#> 1 state = Indiana   &   oil_company = CompanyA                1
#> 2 state = Indiana   &   oil_company = CompanyA                1
#> 3 state = Indiana   &   oil_company = CompanyA                1
#> 4 state = Indiana   &   oil_company = CompanyA                1
#> 5 state = Indiana   &   oil_company = CompanyA                2
#>   fc_model                 n_data_point      min min_perc     q1 q1_perc
#>   <chr>                           <int>    <dbl>    <dbl>  <dbl>   <dbl>
#> 1 fc_holt_winters_addiv             131 0.000197 0.000177 0.0727  0.0561
#> 2 fc_holt_winters_multip            131 0.00169  0.00152  0.0761  0.0577
#> 3 fc_linear_trend                   131 0.00577  0.00404  0.104   0.0812
#> 4 fc_linear_trend_seasonal          131 0.000898 0.000710 0.0985  0.0805
#> 5 fc_holt_winters_addiv             130 0.00181  0.00115  0.0664  0.0519
#>   median median_perc  mean mean_perc    q3 q3_perc   max max_perc    sd
#>    <dbl>       <dbl> <dbl>     <dbl> <dbl>   <dbl> <dbl>    <dbl> <dbl>
#> 1  0.157       0.108 0.200     0.133 0.266   0.188  1.20    0.647 0.177
#> 2  0.165       0.106 0.203     0.135 0.277   0.192  1.21    0.655 0.176
#> 3  0.208       0.154 0.274     0.161 0.352   0.218  1.55    0.497 0.265
#> 4  0.209       0.158 0.279     0.165 0.392   0.226  1.53    0.460 0.265
#> 5  0.179       0.123 0.205     0.136 0.286   0.194  1.20    0.647 0.184
#>   sd_perc order
#>     <dbl> <dbl>
#> 1   0.107     1
#> 2   0.107     2
#> 3   0.106     3
#> 4   0.107     4
#> 5   0.109     1
#> # ... with 1 more row
…
